product_tier,Search Views,Detail Views,Size,Price x Art.,Search Views x Art.,Detail Views x Art.,Stock Days x Art.,CTR
Basic,-0.15005281481501087,-0.1803182731091606,-0.018424713971174178,-0.001619578193394311,-0.1288598574821853,-0.15492957746478875,-0.016567406605305868,-0.026066350710900466
Plus,-0.3020941614728172,-0.3074737401697494,-0.055452865064695045,0.0020412290937378286,-0.23360730593607304,-0.2376237623762376,-0.039961118911329585,-0.005434782608695565
Premium,-0.9014934573218139,-0.9469956855729769,-0.15939849624060143,-0.0052786165248421835,-0.6401857736494745,-0.680672268907563,-0.04931294326241131,-0.02405498281786933
